TFM
…
# Análisis de Ventas Totales por cadena

topPuntosDeVenta <- data %>%
  group_by(cadena,  puntoDeVenta,tipoEvento) %>%
  summarise(total = sum(total)) %>%
  pivot_wider(names_from = tipoEvento, values_from = total) %>%
  mutate(porcCambios = round(CAMBIOS / (VENTAS + CAMBIOS), 2))%>%
  arrange(desc(VENTAS))%>%
  top_n(10, VENTAS)

topPuntosDeVenta

## # A tibble: 113 × 5
## # Groups:   cadena, puntoDeVenta [113]
##    cadena  puntoDeVenta        VENTAS CAMBIOS porcCambios
##    <chr>   <chr>                <dbl>   <dbl>       <dbl>
##  1 WALMART ATANASIO              2230    1061        0.32
##  2 WALMART ROOSEVELT             1760     709        0.29
##  3 WALMART PUERTA PARADA         1751     978        0.36
##  4 TORRE   ZONA 15               1702     505        0.23
##  5 TORRE   20 CALLE              1469     358        0.2 
##  6 WALMART PROCERES              1434     883        0.38
##  7 OTROS   ALLPITA               1360      NA       NA   
##  8 TORRE   FRAIJANES             1277     334        0.21
##  9 TORRE   SAN IGNACIO           1206     440        0.27
## 10 OTROS   DEPOSITO DE PESCADO   1149     302        0.21
## # ℹ 103 more rows
…
